/* XPM */
static char * xmonad_icon2_xpm[] = {
"20 20 3 1",
" 	c None",
".	c #FD4D5E",
"+	c #3D3846",
".......      +++++++",
" .......     ++++++ ",
" .......    ++++++  ",
"  .......   ++++++  ",
"   .......  +++++   ",
"    .......  +++    ",
"    .......   ++    ",
"     .......        ",
"      .......       ",
"      .......       ",
"      ........      ",
"     ..........     ",
"    ............    ",
"    ............    ",
"   ...... .......   ",
"  .......  .......  ",
"  ......    ......  ",
" ......     ....... ",
".......      .......",
"......        ......"};
